0.004784561027208088
0.005005005005005004
122.0
271.0
2.952462487340753
6.0
0.04578785040000008
1650.0
213.873798722405
8336.0
0.00960486328461306
0.009780780780780781
26.0
1.0
2.9973817721578793
17.0
0.0025974000000000045
19348.0
374.2428985827473
0.0
0.013426041102872101
0.01401401401401401
17.0
1.0
3.0
10.0
0.0
27836.0
587.3204847474506
0.0
0.01837690278803252
0.01878978978978979
13.0
1.0
3.0
9.0
0.0
37044.0
799.2055831721738
0.0
0.02226457268680782
0.02302302302302302
10.0
1.0
3.0
7.0
0.0
45466.0
938.7907397813401
0.0
0.027252634614534733
0.027798798798798804
10.0
1.0
3.0
7.0
0.0
54702.0
1043.4745422931342
0.0
0.031515394592667376
0.03203203203203203
9.0
1.0
3.0
6.0
0.0
63040.0
1265.458652494228
0.0
0.03625839323310627
0.0368078078078078
8.0
1.0
3.0
6.0
0.0
72060.0
1148.9046222087122
0.0
0.04082898478886403
0.04104104104104104
8.0
1.0
3.0
6.0
0.0
80274.0
1386.8884801235656
0.0
0.04537720749976156
0.04581681681681682
8.0
1.0
3.0
5.0
0.0
89344.0
1512.2700301859816
0.0
0.049515825635435225
0.05005005005005004
7.0
1.0
3.0
5.0
0.0
97538.0
1454.4819841826934
0.0
0.04270884052485968
0.005026026026026026
201.0
178.0
2.952865449044452
5.0
0.04560274440000008
2878.0
244.1552741747845
6214.0
0.0487979229665377
0.009464464464464464
35.0
49.0
3.0
5.0
0.0
5732.0
356.2570766614673
11428.0
0.05526342424500109
0.014075075075075076
21.0
1.0
3.0
4.0
0.0
25406.0
434.5208985961463
0.0
0.05946380527705463
0.01862162162162162
13.0
1.0
3.0
4.0
0.0
33502.0
540.2975563003513
0.0
0.06270530170949995
0.0228988988988989
11.0
1.0
3.0
5.0
0.0
41228.0
650.271181627466
0.0
0.06734990411014644
0.027514514514514518
9.0
1.0
3.0
4.0
0.0
49456.0
850.794223263718
0.0
0.07147969891348593
0.03204704704704704
8.0
1.0
3.0
4.0
0.0
57482.0
881.13424685836
0.0
0.07573015347022741
0.0365095095095095
7.0
1.0
3.0
4.0
0.0
65432.0
1232.3314522297592
0.0
0.08013925447106664
0.041017017017017
7.0
1.0
3.0
4.0
0.0
73400.0
1158.8713201540324
0.0
0.08500422055470945
0.04552452452452452
6.0
1.0
3.0
3.0
0.0
81242.0
1225.041919594969
0.0
0.08825889314683734
0.049963963963963964
6.0
1.0
3.0
4.0
0.0
88930.0
1178.6952507750752
0.0
0.08234063721809623
0.005033033033033032
188.0
140.0
2.877368069046116
6.0
0.11423211360000017
3602.0
258.81633122947375
5206.0
0.09083376223354304
0.009599599599599603
46.0
54.0
3.0
4.0
0.0
6916.0
385.0460297801516
9842.0
0.09587787092960956
0.014066066066066063
27.0
1.0
3.0
4.0
0.0
24464.0
521.8682541058325
0.0
0.09912231671768555
0.018474474474474475
15.0
1.0
3.0
4.0
0.0
32136.0
669.5832815532212
0.0
0.10304767602766113
0.02302002002002002
11.0
1.0
3.0
4.0
0.0
40012.0
717.8425026329127
0.0
0.10765233288110186
0.027535535535535546
9.0
1.0
3.0
3.0
0.0
47818.0
823.1472244812205
0.0
0.11186354050036895
0.03200300300300301
8.0
1.0
3.0
3.0
0.0
55434.0
963.8580697165594
0.0
0.11476670791756714
0.03642142142142142
9.0
1.0
3.0
3.0
0.0
63034.0
1004.415546041122
0.0
0.11910679210502013
0.04100800800800801
7.0
1.0
3.0
3.0
0.0
70836.0
1032.562814004925
0.0
0.12288564690057747
0.04553953953953953
8.0
1.0
3.0
3.0
0.0
78628.0
1019.1752744102745
0.0
0.12684971518701474
0.05006106106106105
8.0
1.0
3.0
3.0
0.0
86398.0
1141.507721285256
0.0
0.11775680615341937
0.004971971971971972
357.0
113.0
1.1125252835131856
6.0
0.8151658480000029
4170.0
270.57577471290466
4324.0
0.1317880827792268
0.00958658658658659
82.0
41.0
3.0
4.0
0.0
8102.0
415.99986739370183
8210.0
0.13482408823912434
0.013961961961961956
28.0
29.0
3.0
4.0
0.0
11516.0
576.7855418636566
12184.0
0.13831483181063114
0.01842942942942943
19.0
18.0
3.0
4.0
0.0
15534.0
699.2720015904305
15748.0
0.14363986276514878
0.02303803803803804
14.0
1.0
3.0
3.0
0.0
39030.0
842.9155363961037
0.0
0.1466893895582187
0.027483483483483492
17.0
1.0
3.0
3.0
0.0
46520.0
916.7476584450341
0.0
0.14952970019731684
0.031978978978978986
12.0
1.0
3.0
3.0
0.0
54132.0
1015.467238530786
0.0
0.15473872367769823
0.03653253253253253
9.0
1.0
3.0
3.0
0.0
61654.0
1001.4581634705261
0.0
0.1572369651551429
0.04105605605605604
8.0
1.0
3.0
3.0
0.0
69272.0
973.4139675768964
0.0
0.16076712334090362
0.045541541541541546
8.0
1.0
3.0
3.0
0.0
76836.0
959.3050282730766
0.0
0.16457588003984752
0.050013013013013
7.0
1.0
3.0
3.0
0.0
84230.0
1170.1023353698909
0.0
0.15983719529113585
0.005028028028028028
187.0
111.0
1.2630267355105207
5.0
0.761924388000003
4544.0
286.78952300442137
3878.0
0.17155111954128194
0.009534534534534535
218.0
48.0
2.583330191702207
4.0
0.31619267960000064
8286.0
461.6329183532144
7592.0
0.17489072743591977
0.01395895895895896
39.0
24.0
3.0
4.0
0.0
12864.0
587.9966588703081
10380.0
0.179689953065837
0.0185035035035035
19.0
1.0
3.0
3.0
0.0
30736.0
760.792280188103
0.0
0.18247277259308875
0.023003003003003005
40.0
13.0
3.0
3.0
0.0
20732.0
879.2778453927368
17572.0
0.1850521683166592
0.02740540540540541
19.0
1.0
3.0
3.0
0.0
45516.0
949.7785574987934
0.0
0.19011404674515595
0.03203103103103104
11.0
1.0
3.0
3.0
0.0
53080.0
931.9526601487943
0.0
0.19354047466609725
0.03659259259259261
10.0
1.0
3.0
3.0
0.0
60660.0
1027.9273696994946
0.0
0.19642301467849507
0.04103003003003003
8.0
1.0
3.0
3.0
0.0
67904.0
1048.426879916007
0.0
0.19955516541840654
0.045497497497497506
8.0
1.0
3.0
3.0
0.0
75280.0
1078.4892999666847
0.0
0.20269922662396256
0.05005105105105104
8.0
1.0
3.0
3.0
0.0
82674.0
1136.4003129127682
0.0
0.19917604333463096
0.005063063063063062
177.0
100.0
0.8106983738446515
5.0
0.8890692400000032
4948.0
284.5740014368821
3382.0
0.21364827139712791
0.009623623623623623
57.0
45.0
0.5963425874931881
4.0
0.6802194386000006
9178.0
497.646808500592
6572.0
0.21630704706708095
0.014024024024024027
100.0
27.0
1.1127840390825923
3.0
0.5611914248000012
13444.0
622.5347105245826
9520.0
0.21884982436620784
0.018552552552552556
83.0
14.0
3.0
3.0
0.0
18890.0
749.5988535390649
11454.0
0.2226173298732097
0.023014014014014022
58.0
11.0
3.0
3.0
0.0
23260.0
916.7669311336354
14370.0
0.2257954792411937
0.02751851851851851
21.0
9.0
3.0
3.0
0.0
27154.0
967.2823138825626
17824.0
0.22888697822612955
0.032069069069069076
16.0
8.0
3.0
3.0
0.0
31306.0
957.8550600073974
21036.0
0.23078841266522684
0.03657357357357359
12.0
1.0
3.0
3.0
0.0
59706.0
996.4471620609952
0.0
0.2342432780859136
0.04104104104104104
12.0
1.0
3.0
3.0
0.0
66918.0
964.4305596320208
0.0
0.23722577228118655
0.0455095095095095
10.0
1.0
3.0
3.0
0.0
74098.0
1028.1759911858571
0.0
0.24080534641965992
0.05004704704704706
8.0
1.0
3.0
3.0
0.0
81370.0
1067.504812236992
0.0
0.24223287207750496
0.005008008008008007
88.0
94.0
0.5096796047908142
5.0
0.8661768354000023
5192.0
294.9513763066826
2948.0
0.25365566684636504
0.009544544544544545
164.0
44.0
1.1756757504658002
4.0
0.7841066496000016
9536.0
528.1176049028165
5890.0
0.2571159298243177
0.013995995995995993
62.0
28.0
0.5116894434376189
3.0
0.6855392904000012
13818.0
685.9072073474648
8756.0
0.25813295289984073
0.01857257257257257
98.0
17.0
2.5617491230574108
3.0
0.28702084900000074
18856.0
838.5465211628089
11128.0
0.26097692457064164
0.022968968968968977
27.0
12.0
3.0
3.0
0.0
23566.0
937.796494430433
13470.0
0.2645910432813063
0.0274954954954955
54.0
9.0
3.0
3.0
0.0
28946.0
989.0518013753522
15312.0
0.2682701024611277
0.032096096096096094
17.0
6.0
3.0
3.0
0.0
34278.0
1017.2373061207795
17402.0
0.2690359227239912
0.03657257257257257
15.0
1.0
3.0
3.0
0.0
58862.0
1007.4270744917671
0.0
0.271787204824482
0.04097897897897897
10.0
1.0
3.0
3.0
0.0
65906.0
1033.399647753948
0.0
0.2740769355688419
0.04549049049049048
11.0
1.0
3.0
2.0
0.0
73030.0
1064.9520320020033
0.0
0.2756831429129215
0.05000000000000001
12.0
1.0
3.0
2.0
0.0
80308.0
1180.5901026217432
0.0
0.28685875159803736
0.005
52.0
83.0
0.13209341494300106
6.0
0.9967941360000037
5562.0
321.63208172879615
2460.0
0.295275880286339
0.009566566566566568
132.0
42.0
0.9877133052076789
4.0
0.8047108506000025
10186.0
515.5278681158225
5088.0
0.2989755544518613
0.013937937937937935
74.0
28.0
0.7305253598514823
3.0
0.7448451902000017
13906.0
687.7249705175898
8294.0
0.3005608697846603
0.01852652652652653
80.0
20.0
2.203465436835146
3.0
0.47232660940000115
19286.0
878.1841232892874
10266.0
0.3023636044055533
0.02292892892892893
73.0
13.0
2.5227866651948214
3.0
0.2964473492000006
23606.0
947.9674025549226
12880.0
0.30517505889721974
0.027533533533533536
87.0
9.0
3.0
3.0
0.0
29220.0
1021.1191936875416
14572.0
0.30619564821261347
0.032063063063063064
20.0
1.0
3.0
3.0
0.0
51054.0
1000.4343854311041
0.0
0.30785681500282325
0.03653953953953955
16.0
1.0
3.0
3.0
0.0
58116.0
1013.0071604542937
0.0
0.311533436186895
0.04103103103103102
12.0
1.0
3.0
2.0
0.0
65156.0
1062.037668294432
0.0
0.3124193839306678
0.045519519519519505
11.0
1.0
3.0
2.0
0.0
72258.0
1147.7861792237597
0.0
0.3137117459788535
0.05008008008008007
9.0
1.0
3.0
2.0
0.0
79426.0
1178.3209478846015
0.0
0.3260977121158978
0.005029029029029029
73.0
91.0
0.12950095134424627
5.0
1.1019067730000032
5672.0
322.3841085888663
2296.0
0.34436316722331445
0.009458458458458458
59.0
38.0
0.5104615465431552
4.0
0.9972990630000017
10554.0
552.7664914830559
4358.0
0.3420210009318169
0.014033033033033028
41.0
23.0
0.6504994333900319
3.0
0.7836739844000014
15040.0
720.680497043532
7058.0
0.3457461139971067
0.01847947947947948
115.0
15.0
1.5077138680370024
3.0
0.6486586576000015
20764.0
907.5607935103416
8390.0
0.34612433552606353
0.022960960960960956
50.0
11.0
2.506961554328576
3.0
0.32459763660000085
24824.0
1002.8390940177031
11316.0
0.3481509235378049
0.027607607607607606
86.0
8.0
2.484350993206335
3.0
0.3069040448000005
30884.0
1004.1408408924962
12536.0
0.3500188025288076
0.032013013013013014
23.0
5.0
3.0
3.0
0.0
37440.0
1019.9665589750276
12908.0
0.3505259168130373
0.03648648648648649
16.0
4.0
3.0
2.0
0.0
42720.0
986.3590992370664
14650.0
0.3529170340572921
0.04103403403403404
17.0
1.0
3.0
2.0
0.0
64388.0
1050.6148856524526
0.0
0.3537097547594706
0.04548148148148147
18.0
1.0
3.0
2.0
0.0
71344.0
1173.0618093978333
0.0
0.35509685676804664
0.05016516516516514
11.0
1.0
3.0
2.0
0.0
78690.0
1228.4036936717334
0.0
0.3785389624687002
0.00506006006006006
50.0
85.0
0.04840953538082618
5.0
1.1472016532000044
5916.0
326.75097173006964
2002.0
0.3927760250850992
0.009497497497497499
97.0
40.0
0.6386935881514672
4.0
1.1142248470000042
10560.0
567.2285748150144
4222.0
0.39224327353098076
0.013964964964964965
35.0
27.0
0.5674468726893213
3.0
0.962381664600004
15058.0
732.4621474828061
6678.0
0.39506168848972306
0.018456456456456456
60.0
14.0
0.8854006386100228
3.0
0.8476735674000024
20902.0
923.5369728353415
7844.0
0.3939119876431105
0.023005005005005012
67.0
10.0
2.498504925457225
3.0
0.34687454780000065
26566.0
1007.3572896583008
9222.0
0.39468575863531685
0.02758858858858859
54.0
10.0
3.0
3.0
0.0
29960.0
1003.0457209563174
12978.0
0.3954314842193847
0.03207807807807807
32.0
9.0
3.0
3.0
0.0
34176.0
1001.4478789984828
15736.0
0.3974362814762458
0.036484484484484485
19.0
3.0
3.0
2.0
0.0
46878.0
1004.2470336254775
9808.0
0.39806887409063957
0.04103103103103102
18.0
5.0
3.0
2.0
0.0
46332.0
1134.1649742001591
17398.0
0.3982468249554544
0.04553353353353352
15.0
1.0
3.0
2.0
0.0
70654.0
1173.897782559679
0.0
0.3983735508071043
0.05014214214214216
13.0
1.0
3.0
2.0
0.0
77830.0
1257.557841145728
0.0
0.3988436201315938
0.005040040040040038
67.0
89.0
0.014007416840459481
5.0
1.0574830846000063
5863.0
326.36064737275035
2072.0
0.41889579620738293
0.009438438438438442
41.0
46.0
0.8880937514409287
4.0
0.9827569292000021
10259.0
548.70628652516
4450.0
0.421900114947805
0.01401401401401401
37.0
26.0
1.910694651030138
3.0
0.7030781146000018
15225.0
723.0121232694177
6616.0
0.42709938376884593
0.018481481481481484
64.0
18.0
2.4510738180360425
3.0
0.3983103122000007
20185.0
915.9925957462415
8540.0
0.4258199180947473
0.023021021021021014
36.0
11.0
3.0
3.0
0.0
25599.0
979.3185827890828
10140.0
0.4281937128517048
0.02753053053053052
22.0
10.0
3.0
3.0
0.0
30432.0
1044.6893305985718
12316.0
0.43075371433896864
0.03201601601601601
15.0
8.0
3.0
3.0
0.0
34745.0
1078.4845692746258
14916.0
0.4316565067852656
0.036463463463463464
12.0
6.0
3.0
2.0
0.0
40767.0
1046.536401771458
15734.0
0.434387393657878
0.04099399399399399
12.0
1.0
3.0
2.0
0.0
63381.0
1085.0757107776083
0.0
0.43525371877854613
0.0455985985985986
9.0
1.0
3.0
2.0
0.0
70473.0
1243.533907862639
0.0
0.436678336526823
0.05009309309309307
8.0
1.0
3.0
2.0
0.0
77449.0
1279.1991685440441
0.0
