0.41423475883681377
0.020009175842509174
71.91666666666667
16.979166666666668
1.9408913628297093
3.0
0.4734541397583347
21617.5625
884.0543548282931
8951.583333333334
17.65345833333333
0.42798037890816903
0.020037850350350352
72.08333333333333
15.625
1.381528185064856
3.0
0.638806830295835
21513.9375
876.3606708823504
8446.75
16.849166666666665
0.4212325391739217
0.019990073406740076
68.20833333333333
18.479166666666668
1.5176713260272392
3.0
0.5920516278958347
20873.0
874.6866777232985
8348.25
15.218833333333334
0.4285370705265223
0.019995766599933264
65.97916666666667
20.583333333333332
1.3425754499276457
3.0
0.6728889278208349
19935.6875
882.1564199469609
8352.0
13.718375
0.43383093686666346
0.019965819986653324
72.52083333333333
21.770833333333332
1.302559594601709
3.0
0.7004341752250017
19369.125
862.3748535078088
8183.083333333333
12.707708333333336
0.4372996851719358
0.019983983983983985
64.0625
22.083333333333332
1.2386731379281155
2.9583333333333335
0.6998696121666684
19321.520833333332
869.0457532778111
8016.416666666667
12.44208333333333
0.44046144997846165
0.019970324491157824
67.1875
23.25
1.4065269547233115
2.9791666666666665
0.6714471422458349
18863.729166666668
875.6468584732626
8177.75
12.102041666666672
0.4434896113346128
0.01997028278278278
68.33333333333333
23.8125
1.2381645960416086
2.9791666666666665
0.7093417925500017
18691.958333333332
861.7144058249181
8046.083333333333
11.722583333333333
0.44668593958926955
0.019975433767100433
65.0625
23.583333333333332
1.2449337928646667
2.9791666666666665
0.6975672736041686
18555.770833333332
865.0901915253088
7886.666666666667
11.37375
0.4491638198357369
0.019956122789456125
70.66666666666667
24.395833333333332
1.2514872319491424
2.9791666666666665
0.6893806639833353
18316.145833333332
866.4920251477678
7825.541666666667
11.032749999999998
0.45159874813522466
0.019960585585585586
71.8125
24.833333333333332
1.1973899203509528
2.9583333333333335
0.7194957385666688
18128.958333333332
862.140476789
7770.416666666667
10.746208333333334
0.4561108006175088
0.01997662245578912
70.72916666666667
26.145833333333332
0.9804182162139402
2.9166666666666665
0.7309452072083354
17781.291666666668
852.2992832690028
7689.333333333333
10.255666666666666
