0.0046232571127380545
0.005005005005005004
47.916666666666664
217.70833333333334
2.97748750396695
7.375
0.0219827391916667
3391.0
231.15774349565444
6584.5
0.009581117343922587
0.00976071905238572
19.541666666666668
1.0
2.9992586013744265
11.020833333333334
0.0007409250000000012
19235.625
481.61636880376074
0.0
0.013532617271433947
0.014014014014014023
12.333333333333334
1.0
3.0
7.416666666666667
0.0
27801.791666666668
739.7356098716505
0.0
0.018386368276918388
0.018769728061394726
9.895833333333334
1.0
3.0
6.208333333333333
0.0
36992.833333333336
947.2920545192875
0.0
0.02255954696869569
0.023023023023023042
8.583333333333334
1.0
3.0
5.354166666666667
0.0
45472.291666666664
1101.9371753743499
0.0
0.027305389308975667
0.02777873707040375
7.5
1.0
3.0
4.6875
0.0
54574.666666666664
1238.2431822904734
0.0
0.031562195111187796
0.032032032032032
7.0
1.0
3.0
4.375
0.0
62977.666666666664
1331.579862581463
0.0
0.036335886606854335
0.036787746079412736
6.541666666666667
1.0
3.0
3.9375
0.0
72001.33333333333
1438.5972726932403
0.0
0.04059106749429848
0.04104104104104107
6.416666666666667
1.0
3.0
3.7291666666666665
0.0
80311.58333333333
1514.9188857059344
0.0
0.04535360978882363
0.04579675508842176
6.125
1.0
3.0
3.6041666666666665
0.0
89260.75
1561.7057688089362
0.0
0.04958350082651034
0.05005005005005004
5.875
1.0
3.0
3.5
0.0
97474.875
1589.5409936187154
0.0
0.044437566186852094
0.005000521354688021
122.0
198.22916666666666
2.904877822831329
5.520833333333333
0.08768553809583346
2589.9166666666665
254.43111079947803
5978.916666666667
0.05133704228897382
0.009501313813813812
31.791666666666668
7.104166666666667
2.9978646745903776
4.6875
0.0020354867125000034
15297.416666666666
393.17428781273253
948.3333333333334
0.055740296707057296
0.014002022856189527
17.916666666666668
1.0
3.0
4.395833333333333
0.0
23902.708333333332
522.8285059454721
0.0
0.06009453708449994
0.0184950992659326
13.416666666666666
1.0
3.0
4.0625
0.0
31538.0
645.0058630389451
0.0
0.06450894880135116
0.02300427510844177
11.25
1.0
3.0
3.9583333333333335
0.0
39162.041666666664
768.2429227976996
0.0
0.06843073571921697
0.02749282615949283
9.770833333333334
1.0
3.0
3.9166666666666665
0.0
46757.25
868.0908265649242
0.0
0.07252372100247358
0.03199005255255255
9.541666666666666
1.0
3.0
3.7083333333333335
0.0
54333.625
956.3799107094595
0.0
0.07643388682879025
0.03647783199866534
9.0625
1.0
3.0
3.5
0.0
61879.833333333336
1031.4095945988133
0.0
0.08043304964443042
0.04097445362028695
7.729166666666667
1.0
3.0
3.7291666666666665
0.0
69418.625
1110.1585956637796
0.0
0.08452658831790001
0.04547841591591593
7.354166666666667
1.0
3.0
3.6875
0.0
76932.08333333333
1166.1419564868274
0.0
0.08858694678529934
0.04998004254254255
6.895833333333333
1.0
3.0
3.4791666666666665
0.0
84429.66666666667
1209.1293766760732
0.0
0.08475601724646337
0.004996996996996997
206.91666666666666
164.02083333333334
1.8182210387919808
5.25
0.4972816624750016
3225.1666666666665
268.8002852571566
4876.375
0.09246971382438257
0.0094971012679346
69.375
72.35416666666667
2.9795834731011204
4.229166666666667
0.01856230259583336
6114.0
415.0150659647026
9245.916666666666
0.0975739218103026
0.014001981147814481
31.291666666666668
29.333333333333332
2.9970764881981204
3.9583333333333335
0.0024129973375000024
13885.583333333334
538.7508972500756
8736.708333333334
0.10181675343896972
0.018498018852185518
19.979166666666668
13.208333333333334
3.0
3.3958333333333335
0.0
23256.625
650.3978125233702
6603.541666666667
0.10574498811683619
0.022986674174174184
16.333333333333332
2.6458333333333335
3.0
3.0416666666666665
0.0
35635.125
752.2153546529609
1431.375
0.10924091568484666
0.027467509175842512
14.041666666666666
3.6458333333333335
3.0
3.0625
0.0
40845.958333333336
841.3197255650076
3415.75
0.1129693882835462
0.03197134634634635
12.5
1.4791666666666667
3.0
2.9583333333333335
0.0
50781.041666666664
917.6466796094505
688.0
0.11662464757054382
0.03646488154821489
10.895833333333334
1.2291666666666667
3.0
2.9375
0.0
57891.625
965.5449123574334
736.8333333333334
0.12023892833236688
0.04096162829496163
10.333333333333334
1.0
3.0
2.8541666666666665
0.0
65794.79166666667
1027.8429560735333
0.0
0.12377792997187499
0.04545962629295963
9.770833333333334
1.0
3.0
2.8333333333333335
0.0
72953.08333333333
1062.1692817028413
0.0
0.12734831260162835
0.04995074240907574
9.25
1.0
3.0
2.6875
0.0
80080.91666666667
1103.1948971039026
0.0
0.1246160498707559
0.004996454788121455
172.22916666666666
147.10416666666666
1.2660979823247105
5.041666666666667
0.7274970459458352
3657.8333333333335
285.60979595209875
4119.708333333333
0.1344425618457258
0.009492742742742743
134.16666666666666
70.45833333333333
2.5572414001195427
4.0625
0.17972508274166699
6660.375
443.72859230048977
8091.916666666667
0.1396991269303063
0.01399491157824491
61.895833333333336
44.666666666666664
2.892271651640785
3.6041666666666665
0.029570055220833388
9693.791666666666
567.0579879895797
12029.458333333334
0.14381258677955014
0.018479959125792454
39.145833333333336
29.0
2.8635782688374207
3.0833333333333335
0.028076085983333388
14167.875
686.8319723904664
14505.083333333334
0.14737947589208408
0.02296358858858859
31.458333333333332
16.666666666666668
2.9447017955486743
3.0208333333333335
0.008397417387500028
22159.583333333332
789.2527394639487
13441.541666666666
0.15077808300404136
0.027466216216216217
21.6875
6.75
3.0
2.9791666666666665
0.0
34895.958333333336
864.1630402597328
7644.625
0.15400000946456963
0.03196112779446114
17.041666666666668
3.2916666666666665
2.989182780119473
2.9166666666666665
0.004682143220833336
45057.75
917.9794276738598
4416.333333333333
0.15724178822955165
0.03645017934601268
16.520833333333332
1.6458333333333333
3.0
2.8125
0.0
54557.791666666664
959.4053452022722
1821.9583333333333
0.16044055168716514
0.04094252585919253
14.479166666666666
1.4583333333333333
3.0
2.5625
0.0
61845.375
1008.8435836797621
1417.25
0.16360807674238326
0.04544794794794794
12.5
1.0
2.9590813145555934
2.4583333333333335
0.00462601650833334
70176.66666666667
1064.1530757613464
0.0
0.1667679215351837
0.04994092008675342
11.958333333333334
1.0
3.0
2.2708333333333335
0.0
77065.83333333333
1119.421917473558
0.0
0.1667919795665562
0.004996058558558559
109.25
138.14583333333334
0.8099439387774825
5.083333333333333
0.8502768450541692
3979.2083333333335
297.84211382442027
3547.3333333333335
0.17759471383529277
0.00949049049049049
109.47916666666667
66.72916666666667
1.5745323121700678
3.9791666666666665
0.5101516160250011
7281.416666666667
463.95973057150474
6993.458333333333
0.18278690517502552
0.013988175675675674
90.64583333333333
43.166666666666664
2.4883663920818226
3.3958333333333335
0.19121050150416707
10532.125
595.9813219144239
10490.75
0.186664327133194
0.018472785285285283
73.375
28.583333333333332
2.649509329924587
3.0
0.09995583126666689
14332.625
729.2337880442323
13419.083333333334
0.1898828254785068
0.022959334334334332
47.395833333333336
20.770833333333332
2.8019831015211665
2.9791666666666665
0.05371739114166677
18302.291666666668
821.5492649491385
16172.083333333334
0.19294470786314055
0.027457707707707713
33.083333333333336
13.770833333333334
2.886398133868898
2.9791666666666665
0.02627040830833342
25717.875
882.9099114391033
15483.666666666666
0.19589692274237822
0.03194794794794794
28.25
7.229166666666667
2.927966702401708
2.8541666666666665
0.01828793180000005
37247.75
931.1625138717891
10657.458333333334
0.19867768192367666
0.03644675925925927
24.75
4.083333333333333
2.929025940533163
2.5
0.012210022466666684
47116.458333333336
974.6127859375348
7500.75
0.20149343302602682
0.04093954371037703
23.75
2.0416666666666665
2.9122080687723475
2.3125
0.012881048225000025
57356.208333333336
1034.5895157680877
3955.5833333333335
0.2042391987760577
0.04543762512512512
18.833333333333332
1.2291666666666667
3.0
2.1458333333333335
0.0
66818.66666666667
1097.4487229116464
1206.7083333333333
0.20693752744708774
0.04993341257924592
15.208333333333334
1.0
2.965317110096246
2.1041666666666665
0.005658468966666661
74717.375
1170.408258098184
0.0
0.206832979194203
0.004996559059059057
89.89583333333333
131.89583333333334
0.6156901142824563
5.0
0.8851538163833359
4262.875
307.18123912246386
3060.625
0.21998484623378511
0.009483754587921252
97.04166666666667
64.60416666666667
1.126297373068294
4.020833333333333
0.650885007541668
7721.875
491.0795053769636
6166.375
0.22564206448662724
0.013986465632298968
111.14583333333333
40.145833333333336
1.8688774092745255
3.2708333333333335
0.3914685758541676
11295.208333333334
623.5518526082589
9170.541666666666
0.22893652711224266
0.01846448531865198
84.77083333333333
29.229166666666668
2.3947340345110972
3.0
0.19889200252916708
14770.916666666666
753.9726007248805
12241.916666666666
0.23186918027015824
0.022958729562896223
67.1875
21.895833333333332
2.639048849213798
3.0
0.1211435971541669
18508.5
850.0287594577504
15062.708333333334
0.23471489704480972
0.027457415749082417
50.25
15.125
2.5332209512002692
2.9166666666666665
0.10569655784583358
24255.0
901.7055454223711
15870.291666666666
0.2370578448084175
0.03194294294294294
36.604166666666664
10.958333333333334
2.8160127183159243
2.6666666666666665
0.057190241966666826
31146.125
948.0671755159951
15518.666666666666
0.23958734871705933
0.03643906406406406
34.708333333333336
6.4375
2.8756574443073375
2.4375
0.027247347162500032
40541.958333333336
1011.1201298660911
12658.333333333334
0.24188627927320994
0.04093295378712046
29.229166666666668
3.3958333333333335
2.9066032919843905
2.2083333333333335
0.02459684148750001
52781.916666666664
1065.9697738021637
6965.916666666667
0.24424029984276904
0.04542744828161494
24.4375
2.1458333333333335
2.9514644351921646
2.0625
0.011586770558333357
61303.833333333336
1131.3927364478657
4978.458333333333
0.24656968612065944
0.04992767767767767
21.416666666666668
1.9166666666666667
2.9824204952113935
2.0208333333333335
0.006224209374999999
68357.45833333333
1200.8890840727502
4464.916666666667
0.249006892412761
0.0049976017684351
85.45833333333333
127.33333333333333
0.5285600598170755
5.0
0.957417245825003
4480.833333333333
318.2711055617094
2678.0
0.26242495184478404
0.009483566900233565
84.0625
61.875
0.8922622905506685
3.9375
0.7578765706083354
8151.208333333333
505.4455453260773
5420.791666666667
0.26759602071236643
0.013978103103103101
86.16666666666667
39.291666666666664
1.2026257873408592
3.1875
0.594080642420835
11799.5
643.1447102237537
8198.208333333334
0.2706252150036958
0.01845647731064397
92.60416666666667
27.625
1.9220899592476905
3.0
0.352921736608334
15602.5
785.8206541577647
10795.958333333334
0.2730185335703254
0.02295370370370371
76.625
20.604166666666668
2.3722704175531333
3.0
0.2064009770458338
19425.416666666668
875.2189197798388
13394.833333333334
0.2753669326822193
0.027450909242575913
56.25
14.458333333333334
2.528636952581556
2.8333333333333335
0.16713302795000043
24709.833333333332
925.8548937348347
14529.708333333334
0.27751600980333674
0.031934267600934256
45.916666666666664
11.645833333333334
2.604605859909101
2.5
0.12575268937916692
29981.458333333332
969.0533195168681
15642.833333333334
0.27948716964168324
0.036432057057057064
42.8125
8.4375
2.7721114581443573
2.2916666666666665
0.07695940145833348
36413.958333333336
1027.0538635719372
15634.375
0.2814423846395669
0.04092774024024024
35.645833333333336
3.9791666666666665
2.837319845887617
2.1458333333333335
0.054245441316666775
49340.791666666664
1098.8013234269267
9111.791666666666
0.28350311716801707
0.04542819903236572
31.0625
4.041666666666667
2.8690268316393173
2.0208333333333335
0.05693797077083341
53338.75
1171.5893997114704
11522.166666666666
0.28548497986093907
0.04992029529529529
29.166666666666668
3.0208333333333335
2.91601502196673
2.0208333333333335
0.03010800971666674
62320.291666666664
1243.4362118378478
8919.333333333334
0.2947025421108991
0.004999040707374042
70.0625
124.47916666666667
0.45234455914789623
4.854166666666667
1.0317462656875034
4671.583333333333
324.41719716688493
2347.0416666666665
0.3058115623006128
0.009491074407741076
70.27083333333333
60.0625
0.6400451617081749
3.9375
0.8243765917791687
8504.208333333334
521.6276173874957
4805.083333333333
0.3103002409946971
0.013975016683350015
78.97916666666667
37.083333333333336
1.001086153852565
3.125
0.6683505391041682
12364.0
668.3850253738983
7223.5
0.31274200869876273
0.018450492158825493
86.33333333333333
26.958333333333332
1.505058220715718
3.0
0.5139289799541681
16120.708333333334
807.2976898393896
9743.958333333334
0.31495558781429295
0.022954016516516514
77.04166666666667
19.958333333333332
1.8815806921642697
2.9791666666666665
0.3675766024583342
20250.166666666668
891.609976937953
11921.333333333334
0.3166870916760743
0.027441837671004343
72.125
15.6875
2.270730048072864
2.8333333333333335
0.25525365965000074
24257.458333333332
936.9628417526545
14199.125
0.3183266451393976
0.03193216132799466
53.8125
12.354166666666666
2.3310260103282894
2.4791666666666665
0.21504207905000036
28859.583333333332
988.7754594059669
15870.291666666666
0.32006651817307025
0.03642650984317652
43.5
9.604166666666666
2.602475677567423
2.2083333333333335
0.13889605074583364
34714.25
1056.3860270706746
16302.708333333334
0.32149202838577
0.040924174174174176
40.666666666666664
7.520833333333333
2.613975411772753
2.0416666666666665
0.13178228418333357
40934.333333333336
1130.7534448492481
16384.333333333332
0.32315369208445555
0.04542404904904906
38.3125
4.979166666666667
2.7339788505724214
2.0
0.1027709538041669
50438.625
1206.3472479014845
13156.291666666666
0.3248021763586792
0.04991551968635302
32.520833333333336
3.8541666666666665
2.640109041440935
2.0
0.12120175852916697
57732.833333333336
1273.0849250716783
12126.708333333334
0.3476236286962375
0.004997142976309643
67.0625
123.79166666666667
0.43180737038085976
4.833333333333333
1.1068754517750032
4842.125
332.59726897590303
2026.125
0.3566475851913971
0.00949386886886887
63.541666666666664
57.958333333333336
0.6303701650801099
3.8958333333333335
0.8834547410916688
8859.583333333334
533.846839105638
4173.791666666667
0.360242784348699
0.013974557891224556
79.72916666666667
35.291666666666664
0.8623970394617354
3.0625
0.773710523595835
12892.583333333334
694.7131127872784
6292.791666666667
0.3617572753407516
0.018461294627961294
72.08333333333333
25.5625
1.2125987786912558
3.0
0.6744316326750018
16886.75
829.4657405878265
8462.791666666666
0.3634842094211783
0.02295443360026693
73.14583333333333
19.8125
1.6312743781844665
2.9375
0.5001262713000014
20843.083333333332
905.2689357921348
10666.0
0.36486353822017753
0.027441274607941272
67.79166666666667
15.270833333333334
1.8477360257291051
2.7291666666666665
0.4137101313500012
25136.25
956.8453523798149
12529.666666666666
0.36588506599746623
0.03192957540874207
58.5
12.416666666666666
2.1549130903128257
2.3541666666666665
0.3171838273500007
29713.041666666668
1010.9897215676798
14106.791666666666
0.3670651278084347
0.03642646813480146
48.708333333333336
9.729166666666666
2.3188208386255025
2.0833333333333335
0.24751913136666737
34872.833333333336
1087.6616749525
15117.583333333334
0.3680835532882385
0.0409278028028028
45.229166666666664
7.4375
2.3690505782917963
2.0208333333333335
0.23434575335416719
40459.666666666664
1166.3035800186797
15708.0
0.36935222054303357
0.04541533199866534
36.979166666666664
6.395833333333333
2.458777104805525
2.0
0.1899107865083337
45487.666666666664
1237.404928397465
16822.708333333332
0.3704079024514564
0.04990008758758759
39.1875
4.8125
2.454670307644038
2.0
0.1907898039666672
54253.708333333336
1303.0004215156175
14188.666666666666
0.408652829970554
0.004995745745745746
63.9375
120.85416666666667
0.38037359429624357
4.770833333333333
1.1520908058958368
5040.875
342.2692780464897
1675.5
0.41797207768284683
0.00949443193193193
65.04166666666667
55.8125
0.5135878895065632
3.8333333333333335
1.0231221362916694
9203.916666666666
549.5094225835884
3549.1666666666665
0.41940589463829747
0.013970199366032698
75.79166666666667
35.583333333333336
0.7098935992843013
3.0416666666666665
0.9135442466000026
13288.958333333334
719.6150008240121
5479.458333333333
0.42023361942204934
0.01845854187520854
73.875
24.25
1.0506947368403559
3.0
0.7935618385041684
17566.458333333332
851.705263574488
7226.583333333333
0.42095325617635443
0.022948511011011006
75.89583333333333
18.3125
1.2268977897744866
2.9375
0.6743404481208352
21817.333333333332
925.8128060999601
9010.291666666666
0.42174943264699444
0.02743785452118785
71.41666666666667
15.208333333333334
1.6968906981843006
2.6458333333333335
0.5613197999833348
25873.791666666668
972.6795241929818
10978.958333333334
0.42215546394220954
0.03192617617617617
62.041666666666664
12.208333333333334
1.988526553487891
2.2916666666666665
0.42532017052500115
30433.458333333332
1035.6410941021038
12452.708333333334
0.4227162569964498
0.036421859359359356
51.145833333333336
10.5625
2.108118093392019
2.0833333333333335
0.37010360589166763
34576.208333333336
1117.1407675724183
14355.375
0.4232233751099381
0.04091814731398066
43.8125
8.604166666666666
2.143413775948607
2.0
0.3502050168458342
39213.416666666664
1200.6838738427862
15764.416666666666
0.42393882804312405
0.045408199866533196
43.125
8.0
2.1883667970499903
2.0
0.3120790564708341
43131.0
1273.5520821575167
17859.5
0.42450461155081487
0.049900254421087746
37.916666666666664
5.833333333333333
2.033345505163575
2.0
0.3643238299875011
50576.708333333336
1339.838726858259
16451.166666666668
0.4173384013625272
0.0049972889556222895
66.0625
120.70833333333333
0.39093772829604795
4.75
1.0923668614833366
5075.541666666667
338.8705511145145
1745.2916666666667
0.43484894131574836
0.009488634467801136
64.58333333333333
55.333333333333336
0.6709338474927943
3.8125
0.9331317571958357
9237.791666666666
542.9616046739496
3634.9583333333335
0.43992354892622837
0.013961002669336002
64.41666666666667
34.833333333333336
0.7239751927293302
3.0208333333333335
0.8576752629500021
13303.1875
711.321260617506
5581.166666666667
0.44371035556932986
0.01844849015682349
66.85416666666667
24.958333333333332
1.17260442602694
3.0
0.7204368853666684
17392.0
848.7446039561078
7493.833333333333
0.4463222639501076
0.02294121204537872
67.875
18.708333333333332
1.4173339503822053
2.9166666666666665
0.6349088253833352
21657.166666666668
921.391447674872
9243.291666666666
0.44766685819003377
0.027429158324991668
63.666666666666664
15.291666666666666
1.8563187032631543
2.6875
0.461302638054168
25738.125
966.5904104515575
11182.875
0.44904441973572345
0.03192298548548548
58.541666666666664
11.833333333333334
2.1460573848743536
2.3333333333333335
0.35868162910000084
30566.916666666668
1035.16720653643
12382.0
0.4502904927173797
0.03642630130130129
51.125
10.895833333333334
2.251887903323645
2.125
0.31779066567083436
34183.791666666664
1116.1509734795814
14809.083333333334
0.4513437318811598
0.040912057891224575
42.395833333333336
8.708333333333334
2.3409108106524728
2.0208333333333335
0.27304190438333414
39413.25
1198.9969196610753
15584.416666666666
0.4526052814486217
0.045399044878211565
41.6875
7.25
2.475199741116343
2.0
0.23529491177916742
44434.25
1275.2218853872023
16563.291666666668
0.4535800881844651
0.04990444611277944
35.0625
5.520833333333333
2.542933466148061
2.0
0.1931553360791672
51623.875
1335.3841673582615
15407.458333333334
